# Name,   Type, SubType,  Offset,   Size,  Flags
nvs,      data, nvs,      0x9000,   16k
otadata,  data, ota,      0xd000,   8k
phy_init, data, phy,      0xf000,   4k
ota_0,    app,  ota_0,    0x10000,  1408K
ota_1,    app,  ota_1,    0x170000, 1408K
storage,    data, fat,    ,         1M
coredump, data, coredump, ,         64K
reserved, data, 0xfe,     ,         128K
